"X","x1","x2","xvar","yvar","siz","col"
1,1,8,NA,NA,NA,NA
2,2,7,NA,NA,NA,NA
3,3,6,NA,NA,NA,NA
4,4,7,4,3,0.512216361006722,4
5,5,6,5,1,1.05128073692322,2
6,6,5,NA,NA,NA,NA
7,7,6,7,0,0.643570449436083,5
8,8,5,8,4,1.45529153500684,4
9,9,4,9,1,0.888725829310715,5
10,10,5,10,2,1.36115753883496,4
11,11,4,11,3,0.676204454386607,2
12,12,3,12,1,0.702981394482777,2
13,13,4,NA,NA,NA,NA
14,14,3,14,2,1.09122446505353,1
15,15,2,15,0,0.989599636988714,4
16,16,3,16,0,0.768577022245154,4
17,17,2,17,1,1.2701859374065,2
18,18,1,18,0,1.09488858864643,4
19,19,0.5,NA,NA,NA,NA
20,20,0.1,NA,NA,NA,NA
